6 좌표계 – Cartography
…
6.3.6 우리나라 TM 좌표계

우리나라의 TM 좌표계 지도를 제작한다.

지리공간데이터 불러와 정리하기

topo_250 |> 
  st_transform(topo_250, crs = st_crs(sido))

Simple feature collection with 26 features and 2 fields
Geometry type: POLYGON
Dimension:     XY
Bounding box:  xmin: 676706.7 ymin: 1445472 xmax: 1400507 ymax: 2564834
Projected CRS: KGD2002 / Unified CS
# A tibble: 26 × 3
   MAPID_NM   MAPID_NO                                                      geom
 * <chr>      <chr>                                                <POLYGON [m]>
 1 평양       NJ51-3   ((700120.1 2200056, 701208.4 2227814, 722554.9 2227003, …
 2 진남포     NJ51-6   ((695823.9 2089039, 696889.3 2116792, 718545.1 2115988, …
 3 대연평     NJ51-9   ((691620.7 1978033, 692662.7 2005783, 714621.3 2004986, …
 4 격렬비열도 NJ51-12  ((687511.5 1867041, 688529.9 1894787, 710784.7 1893998, …
 5 부남       NI51-3   ((683497.8 1756060, 684492.2 1783804, 707036.3 1783022, …
 6 흑산도     NI51-6   ((679580.5 1645087, 680550.7 1672829, 703377.3 1672056, …
 7 회령       NK52-5   ((1040919 2527360, 1040754 2555121, 1061131 2555273, 108…
 8 청진       NK52-8   ((1041571 2416325, 1041409 2444082, 1062113 2444233, 108…
 9 성진       NK52-11  ((1042209 2305311, 1042051 2333062, 1063076 2333213, 108…
10 속초       NJ52-5   ((1043448 2083338, 1043296 2111080, 1064944 2111229, 108…
# ℹ 16 more rows
…
